INDEX VERSION 1.131+C:\Users\Matteo\LCMC19ws\.metadata\.plugins\org.eclipse.jdt.core
1870878615.index
3854475047.index
2773834657.index
3886402465.index
984225034.index
3341573606.index
1455593261.index
1025833750.index
1302747137.index
3523662158.index
1084624933.index
1622776731.index
326805980.index
1988513050.index
4289135590.index
1518219961.index
2301944148.index
1469268087.index
999789348.index
728296283.index
2511617568.index
2708980209.index
398058497.index
14682029.index
2238761963.index
